<?xml version="1.0" encoding="utf-8"?>
<!-- Generator: Adobe Illustrator 16.0.3, SVG Export Plug-In . SVG Version: 6.00 Build 0)  -->
<!DOCTYPE svg PUBLIC "-//W3C//DTD SVG 1.1//EN" "http://www.w3.org/Graphics/SVG/1.1/DTD/svg11.dtd">
<svg version="1.1" id="ОТКРЫТИЯ" xmlns="http://www.w3.org/2000/svg" xmlns:xlink="http://www.w3.org/1999/xlink" x="0px"
	 y="0px" width="3646.566px" height="2372.037px" viewBox="0 0 3646.566 2372.037" enable-background="new 0 0 3646.566 2372.037"
	 xml:space="preserve">
<g id="викинги">
	<path fill="none" stroke="#0E3A87" stroke-width="3" stroke-dasharray="5,3" d="M1559.272,438.345
		c-8.787,0-17.622,0.2-26.368-0.682c-4.222-0.425-8.621-0.521-12.638-1.764c-1.462-0.452-2.745-1.051-4.244-1.305"/>
	<path fill="none" stroke="#0E3A87" stroke-width="3" stroke-dasharray="5,3" d="M1501.522,428.595
		c-3.116-1.358-6.289-3.553-9.195-5.395c-4.123-2.613-8.657-5.151-12.893-7.567c-4.278-2.439-8.487-4.745-12.663-7.289"/>
	<path fill="none" stroke="#0E3A87" stroke-width="3" stroke-dasharray="5,3" d="M1456.522,401.095
		c-0.097-2.142-3.137-3.906-4.611-5.291c-3.216-3.021-7.244-4.45-11.417-5.722c-5.905-1.8-10.469-5.58-15.932-8.286
		c-4.207-2.083-8.794-4.782-13.54-5.214c-2.767-0.252-5.19,0.83-7.751,1.525c-3.77,1.024-7.806,1.998-11.888,2.182
		c-3.204,0.145-6.434,0.056-9.644,0.056c-2.206,0-5.76,0.705-7.854-0.038c-2.596-0.92-2.837-3.849-4.093-5.906
		c-1.291-2.114-3.255-3.684-4.532-5.749c-0.474-0.768-0.874-1.885-1.237-2.557"/>
	<path fill="none" stroke="#0E3A87" stroke-width="3" stroke-dasharray="5,3" d="M1362.522,348.095
		c-4.589-2.939-12.654-1.5-18.082-1.5c-8.646,0-17.45-0.196-26.094,0.237c-7.023,0.352-15.231-0.995-21.927,1.257
		c-2.859,0.962-5.11,2.813-7.854,3.963c-3.685,1.545-7.621,1.99-10.881,4.605c-3.846,3.086-6.606,7.519-10.2,10.87
		c-3.634,3.39-8.709,5.556-13.049,7.951c-4.717,2.603-9.573,5.18-13.526,8.865c-3.984,3.714-6.714,8.102-11.206,11.237
		c-5.547,3.873-11.799,6.25-18.168,8.458c-10.311,3.574-20.857,4.556-31.841,4.556c-7.7,0-14.503-1.069-21.342-3.996
		c-8.581-3.672-11.585-13.625-11.581-22.504"/>
	<path fill="none" stroke="#0E3A87" stroke-width="3" stroke-dasharray="5,3" d="M1145.772,379.095
		c1.43-2.813-3.378-7.882-5.302-9.938c-6.412-6.85-14.399-8.284-23.181-10.75c-11.068-3.108-22.912-4.411-34.258-6.068
		c-3.564-0.521-8.995-1.575-12.246-0.293c-3.589,1.416-5.645,4.99-8.012,7.867c-2.875,3.495-6.43,7.02-8.499,11.056
		c-4.708,9.179-9.184,18.755-13.17,28.14c-1.986,4.675-5.089,9.194-6.857,14.042c-1.281,3.511-2.349,7.382-3.542,11.008
		c-4.802,14.587,0.707,28.647,0.818,43.368c0.053,6.967,0.465,14.384,2.012,21.154c1.274,5.576,2.239,11.997,1.736,17.767
		c-0.364,4.174-2.673,4.558-6.504,5.148c-9.507,1.466-18.53,3.517-26.859,8.548c-7.584,4.582-15.532,8.454-23.254,12.75
		c-3.634,2.022-6.899,4.383-10.326,6.64c-2.157,1.421-5.937,2.587-7.556,4.311"/>
	<path fill="none" stroke="#0E3A87" stroke-width="3" stroke-dasharray="5,3" d="M956.772,547.095
		c-4.303-0.033-10.607,2.418-14.049,4.758c-2.9,1.971-7.061,4.766-8.15,8.299c-1.62,5.251-0.16,11.422,3.461,15.394
		c2.226,2.441,5.985,4.863,7.187,8.048c2.61,6.917-3.969,11.393-9.38,13.814c-5.073,2.271-9.634,5.104-15.014,6.243
		c-0.561,0.119-1.229,0.295-1.806,0.444"/>
	<polygon fill="#424F7C" stroke="#3F4E7F" stroke-width="1.2756" stroke-linejoin="round" stroke-miterlimit="3.8637" points="
		1511.579,435.002 1525.697,433.233 1523.15,442.243 	"/>
	<polygon fill="#424F7C" stroke="#3F4E7F" stroke-width="1.2756" stroke-linejoin="round" stroke-miterlimit="3.8637" points="
		1465.209,407.36 1479.128,410.315 1473.769,417.993 	"/>
	<polygon fill="#424F7C" stroke="#3F4E7F" stroke-width="1.2756" stroke-linejoin="round" stroke-miterlimit="3.8637" points="
		1410.071,376.569 1424.189,374.8 1421.642,383.81 	"/>
	<polygon fill="#424F7C" stroke="#3F4E7F" stroke-width="1.2756" stroke-linejoin="round" stroke-miterlimit="3.8637" points="
		1347.113,344.655 1361.231,342.885 1358.684,351.896 	"/>
	<polygon fill="#424F7C" stroke="#3F4E7F" stroke-width="1.2756" stroke-linejoin="round" stroke-miterlimit="3.8637" points="
		1215.324,402.814 1225.289,392.657 1228.89,401.299 	"/>
	<polygon fill="#424F7C" stroke="#3F4E7F" stroke-width="1.2756" stroke-linejoin="round" stroke-miterlimit="3.8637" points="
		1093.012,353.832 1107.131,352.062 1104.583,361.073 	"/>
	<polygon fill="#424F7C" stroke="#3F4E7F" stroke-width="1.2756" stroke-linejoin="round" stroke-miterlimit="3.8637" points="
		1038.1,404.556 1038.355,390.33 1046.912,394.131 	"/>
	<polygon fill="#424F7C" stroke="#3F4E7F" stroke-width="1.2756" stroke-linejoin="round" stroke-miterlimit="3.8637" points="
		1031.743,470.385 1025.052,457.828 1034.378,456.992 	"/>
	<polygon fill="#424F7C" stroke="#3F4E7F" stroke-width="1.2756" stroke-linejoin="round" stroke-miterlimit="3.8637" points="
		989.058,526.875 999.763,517.5 1002.7,526.39 	"/>
	<polygon fill="#424F7C" stroke="#3F4E7F" stroke-width="1.2756" stroke-linejoin="round" stroke-miterlimit="3.8637" points="
		935.223,560.68 941.207,547.771 947.497,554.708 	"/>
	<polygon fill="#424F7C" stroke="#3F4E7F" stroke-width="1.2756" stroke-linejoin="round" stroke-miterlimit="3.8637" points="
		908.833,607.113 920.133,598.466 922.476,607.532 	"/>
</g>
</svg>
