<?xml version="1.0" encoding="utf-8"?>
<!-- Generator: Adobe Illustrator 16.0.3, SVG Export Plug-In . SVG Version: 6.00 Build 0)  -->
<!DOCTYPE svg PUBLIC "-//W3C//DTD SVG 1.1//EN" "http://www.w3.org/Graphics/SVG/1.1/DTD/svg11.dtd">
<svg version="1.1" id="ОТКРЫТИЯ" xmlns="http://www.w3.org/2000/svg" xmlns:xlink="http://www.w3.org/1999/xlink" x="0px"
	 y="0px" width="3646.566px" height="2372.037px" viewBox="0 0 3646.566 2372.037" enable-background="new 0 0 3646.566 2372.037"
	 xml:space="preserve">
<g id="Христофор_Колумб">
	<path fill="none" stroke="#DD5927" stroke-width="3.5717" stroke-miterlimit="3.8637" d="M528.512,979.099
		c14.229,9.822,44.181,1.623,32.122,30.437c-13.85,33.092-14.411,55.594-13.171,66.977c2.352,21.593,19.579,3.087,28.458,5.852
		c8.879,2.765,36.829-2.578,38.503-30.407c4.025-66.917-23.889-73.663-7.673-93.084"/>
	<polygon fill="#DD5927" stroke="#DD5927" stroke-width="3.5717" stroke-miterlimit="3.8637" points="605.413,960.476 
		606.273,962.57 608.08,957.149 602.868,960.131 	"/>
	<path fill="none" stroke="#DD5927" stroke-width="3.5717" stroke-linejoin="round" stroke-miterlimit="3.8637" d="M1248.88,882.523
		c-8.37,4.092-124.079,66.598-124.079,66.598s-97.926,28.282-143.956,35.655"/>
	<polygon fill="#DD5927" stroke="#DD5927" stroke-width="3.5717" stroke-miterlimit="3.8637" points="982.935,984.441 
		983.708,982.315 978.683,985.208 984.608,986.348 	"/>
	<path fill="none" stroke="#DD5927" stroke-width="3.5717" stroke-linejoin="round" stroke-miterlimit="3.8637" d="M975.151,986.932
		c0,0-30.823,10.394-92.883,15.095c-77.176,1.535-122.88-28.607-122.88-28.607s-59.521-33.261-70.149-35.339"/>
	<polygon fill="#DD5927" stroke="#DD5927" stroke-width="3.5717" stroke-miterlimit="3.8637" points="691.316,938.486 
		692.804,936.762 687.06,937.74 692.195,940.847 	"/>
	<path fill="none" stroke="#DD5927" stroke-width="3.5717" stroke-miterlimit="3.8637" d="M941.071,1037.304
		c-31.241,2.29-84.425,6.239-106.507,6.239c-22.081,0-39.403-0.782-58.379-12.22c-16.878-10.173-65.791-19.291-76.374-23.635
		c-4.776-1.959-17.258-7.247-22.811-10.689"/>
	<polygon fill="#DD5927" stroke="#DD5927" stroke-width="3.5717" stroke-miterlimit="3.8637" points="683.064,1000.698 
		685.087,999.612 679.368,998.504 683.017,1003.209 	"/>
	<path fill="none" stroke="#DD5927" stroke-width="3.5717" stroke-miterlimit="3.8637" d="M1143.084,957.829
		c-39.274,15.76-126.31,53.888-139.127,56.617c-6.482,1.38-28.297,15.3-53.806,19.458"/>
	<polygon fill="#DD5927" stroke="#DD5927" stroke-width="3.5717" stroke-miterlimit="3.8637" points="952.152,1034.904 
		952.918,1032.776 947.902,1035.682 953.83,1036.806 	"/>
	<path fill="none" stroke="#DD5927" stroke-width="3.5717" stroke-miterlimit="3.8637" d="M1207.029,914.444
		c0,0-39.5,30.056-50.083,35.806c-2.21,1.201,1.393,0.318-8.974,4.479"/>
	<polygon fill="#DD5927" stroke="#DD5927" stroke-width="3.5717" stroke-miterlimit="3.8637" points="1149.93,953.942 
		1150.194,951.701 1145.963,955.625 1152,955.432 	"/>
	<path fill="none" stroke="#DD5927" stroke-width="3.5717" stroke-miterlimit="3.8637" d="M888.879,1117.12
		c-52.171-1.07-84.939-2.885-89.141-4.372c-7.122-2.519-16.982-9.796-21.914-12.315c-4.931-2.519-16.984-2.519-12.053-8.816
		c4.931-6.298,4.93-12.315-2.465-13.575c-7.396-1.26-25.612-0.281-28.078,7.276c-33.018-63.194-27.357-40.797-41.145-64.685"/>
	<polygon fill="#DD5927" stroke="#DD5927" stroke-width="3.5717" stroke-miterlimit="3.8637" points="691.777,1020.699 
		694.084,1020.633 689.508,1017.1 690.566,1022.915 	"/>
	<g>
		<path fill-rule="evenodd" clip-rule="evenodd" fill="#DD5927" d="M823.493,860.781c0.14,0.002,0.257,0.004,0.396,0.006
			c1.54,0.026,2.544,0.067,4.642,4.236c1.713,3.454,2.5,3.855,4.04,3.882c0.28,0.005,0.538-0.036,0.819-0.077l0.031-1.735
			c-0.14-0.002-0.257-0.004-0.397-0.006c-1.049-0.064-0.904-0.358-3.168-4.37c-0.814-1.43-1.542-2.538-3.287-2.865l0.001-0.068
			c3.969-1.302,3.21-5.882,5.615-5.84c0.117,0.002,0.21,0.004,0.327,0.028l0.03-1.735c-0.139-0.025-0.255-0.05-0.396-0.053
			c-1.961-0.033-2.892,1.069-4.071,3.104c-1.687,2.894-2.12,3.594-4.175,3.604c-0.116-0.002-0.256-0.004-0.374-0.006l0.116-6.483
			l-2.241-0.038l-0.284,15.978l2.241,0.039L823.493,860.781z"/>
		<path fill-rule="evenodd" clip-rule="evenodd" fill="#DD5927" d="M835.031,860.589c-0.016,0.868,0.007,3.54,1.301,5.549
			c1.637,2.517,4.152,2.902,5.949,2.933c1.774,0.031,4.325-0.269,6.026-2.729c0.551-0.79,1.466-2.417,1.522-5.499
			c0.054-3.082-0.803-4.741-1.326-5.548c-1.613-2.516-4.151-2.902-5.925-2.933c-1.798-0.031-4.324,0.269-6.049,2.727
			C835.164,857.053,835.046,859.722,835.031,860.589z M837.437,860.563c0.021-1.165,0.253-6.389,5.085-6.306
			c4.318,0.074,4.944,4.286,4.903,6.546c-0.041,2.26-0.815,6.448-5.133,6.374C839.071,867.121,837.364,864.625,837.437,860.563z"/>
		<path fill-rule="evenodd" clip-rule="evenodd" fill="#DD5927" d="M861.544,854.948l-0.25,14.083l2.241,0.039l0.285-15.979
			l-8.59-0.147l-0.044,2.534c-0.028,1.575-0.131,6.026-0.812,8.868c-0.68,2.751-2.366,3.042-2.903,3.056
			c-0.093-0.001-0.163-0.002-0.256-0.004l-0.031,1.734c0.279,0.073,0.535,0.101,0.838,0.105c2.568,0.045,4.1-2.076,4.696-5.377
			c0.595-3.277,0.559-5.173,0.72-8.983L861.544,854.948z"/>
		<path fill-rule="evenodd" clip-rule="evenodd" fill="#DD5927" d="M873.386,862.8l-4.663-9.624l-2.474-0.043l5.901,12.158
			c-0.822,1.562-1.679,2.528-3.522,2.405l-0.031,1.735c0.325,0.097,0.605,0.102,0.979,0.108c2.03,0.034,3.498-1.059,4.908-4.163
			l5.444-12.008l-2.334-0.041L873.386,862.8z"/>
		<polygon fill-rule="evenodd" clip-rule="evenodd" fill="#DD5927" points="888.499,866.484 889.993,866.51 894.281,856.446 
			894.047,869.594 896.288,869.632 896.573,853.654 893.491,853.601 889.323,863.416 885.461,853.463 882.358,853.41 
			882.073,869.388 884.313,869.427 884.548,856.279 		"/>
		<path fill-rule="evenodd" clip-rule="evenodd" fill="#DD5927" d="M902.546,855.652l7.889,0.135l0.034-1.895l-10.13-0.174
			l-0.284,15.979l6.441,0.11c3.782,0.065,5.665-2.095,5.719-5.107c0.079-4.474-3.627-4.857-5.47-4.89l-4.272-0.073L902.546,855.652z
			 M902.44,861.632l3.688,0.063c3.245,0.056,3.707,1.639,3.681,3.1c-0.033,1.872-0.827,3.16-3.885,3.107l-3.594-0.061
			L902.44,861.632z"/>
		<path fill-rule="evenodd" clip-rule="evenodd" fill="#DD5927" d="M925.259,857.868l-0.219,12.257l2.171,0.038l0.285-15.979
			l-1.658-0.028c-0.562,1.383-2.762,3.035-3.917,3.655l0.93,1.545C923.791,858.961,924.29,858.536,925.259,857.868z"/>
		<path fill-rule="evenodd" clip-rule="evenodd" fill="#DD5927" d="M938.543,866.955l-0.06,3.401l2.17,0.037l0.06-3.401l1.424,0.025
			l0.033-1.827l-1.424-0.025l0.191-10.75l-1.983-0.034l-6.984,10.634l-0.032,1.826L938.543,866.955z M938.576,865.129l-4.761-0.082
			l4.898-7.611L938.576,865.129z"/>
		<path fill-rule="evenodd" clip-rule="evenodd" fill="#DD5927" d="M951.467,863.523c-0.003,0.205-0.006,0.411-0.011,0.616
			c-0.071,1.415-0.627,5.036-2.891,4.997c-1.167-0.02-1.532-0.528-2.308-1.478l-1.488,0.91c1.106,2.074,2.784,2.309,3.857,2.327
			c3.269,0.056,4.995-3.773,5.08-8.544c0.135-7.578-3.358-8.141-4.665-8.163c-2.941-0.05-4.616,2.181-4.676,5.582
			c-0.059,3.265,1.682,5.235,4.132,5.277C949.035,865.057,950.25,864.963,951.467,863.523z M948.905,863.16
			c-0.979-0.017-2.347-0.611-2.292-3.716c0.024-1.347,0.415-3.669,2.422-3.634c1.798,0.031,2.302,1.866,2.269,3.715
			C951.257,862.241,950.259,863.183,948.905,863.16z"/>
		<path fill-rule="evenodd" clip-rule="evenodd" fill="#DD5927" d="M959.049,868.882c3.358-3.733,6.95-6.138,7.016-9.813
			c0.045-2.511-1.342-4.612-4.609-4.669c-2.638-0.044-4.209,1.664-4.775,3.229l1.713,0.852c0.943-1.856,1.909-2.251,2.912-2.233
			c1.635,0.028,2.549,1.139,2.52,2.714c-0.05,2.831-2.796,4.953-7.436,9.851l-0.033,1.849l9.523,0.163l0.032-1.826L959.049,868.882z
			"/>
	</g>
	<g>
		<path fill-rule="evenodd" clip-rule="evenodd" fill="#DD5927" d="M796.368,1090.636c0.12,0.002,0.221,0.004,0.341,0.006
			c1.325,0.023,2.187,0.058,3.991,3.642c1.473,2.971,2.149,3.316,3.474,3.339c0.241,0.004,0.463-0.031,0.704-0.067l0.027-1.492
			c-0.121-0.002-0.221-0.003-0.341-0.006c-0.902-0.054-0.777-0.308-2.725-3.758c-0.701-1.229-1.327-2.183-2.828-2.464l0.002-0.059
			c3.413-1.12,2.76-5.058,4.828-5.022c0.101,0.002,0.181,0.003,0.28,0.024l0.027-1.492c-0.12-0.021-0.22-0.042-0.34-0.044
			c-1.687-0.029-2.486,0.919-3.501,2.669c-1.45,2.488-1.823,3.091-3.589,3.1c-0.1-0.001-0.22-0.004-0.321-0.006l0.099-5.574
			l-1.926-0.034l-0.245,13.742l1.928,0.032L796.368,1090.636z"/>
		<path fill-rule="evenodd" clip-rule="evenodd" fill="#DD5927" d="M806.276,1090.472c-0.013,0.746,0.005,3.043,1.12,4.771
			c1.406,2.165,3.569,2.497,5.115,2.523c1.526,0.026,3.718-0.231,5.182-2.346c0.475-0.679,1.262-2.079,1.309-4.729
			c0.047-2.65-0.69-4.077-1.14-4.771c-1.386-2.164-3.569-2.496-5.095-2.522c-1.545-0.026-3.718,0.231-5.202,2.346
			C806.391,1087.43,806.29,1089.726,806.276,1090.472z M808.345,1090.449c0.018-1.001,0.218-5.494,4.373-5.423
			c3.712,0.064,4.251,3.686,4.217,5.629c-0.035,1.943-0.702,5.545-4.415,5.481C809.75,1096.088,808.283,1093.943,808.345,1090.449z"
			/>
		<path fill-rule="evenodd" clip-rule="evenodd" fill="#DD5927" d="M829.062,1085.621l-0.216,12.111l1.928,0.033l0.244-13.741
			l-7.386-0.127l-0.039,2.179c-0.024,1.354-0.112,5.182-0.698,7.626c-0.584,2.365-2.034,2.616-2.496,2.627
			c-0.081-0.001-0.141-0.002-0.221-0.004l-0.026,1.492c0.24,0.063,0.46,0.087,0.72,0.091c2.208,0.038,3.526-1.785,4.038-4.624
			c0.513-2.819,0.482-4.45,0.62-7.726L829.062,1085.621z"/>
		<path fill-rule="evenodd" clip-rule="evenodd" fill="#DD5927" d="M839.23,1092.373l-4.009-8.277l-2.128-0.037l5.074,10.455
			c-0.706,1.343-1.443,2.175-3.029,2.068l-0.026,1.492c0.279,0.083,0.521,0.087,0.842,0.094c1.746,0.029,3.008-0.911,4.22-3.58
			l4.682-10.327l-2.007-0.034L839.23,1092.373z"/>
		<polygon fill-rule="evenodd" clip-rule="evenodd" fill="#DD5927" points="852.213,1095.541 853.498,1095.563 857.185,1086.908 
			856.984,1098.214 858.911,1098.248 859.155,1084.507 856.506,1084.461 852.922,1092.902 849.601,1084.342 846.931,1084.297 
			846.687,1098.038 848.614,1098.071 848.815,1086.764 		"/>
		<path fill-rule="evenodd" clip-rule="evenodd" fill="#DD5927" d="M864.276,1086.224l6.784,0.116l0.029-1.629l-8.711-0.149
			l-0.245,13.741l5.54,0.095c3.252,0.056,4.871-1.801,4.917-4.393c0.068-3.847-3.118-4.177-4.703-4.204l-3.673-0.063
			L864.276,1086.224z M864.185,1091.368l3.171,0.054c2.79,0.048,3.188,1.41,3.166,2.667c-0.029,1.609-0.711,2.717-3.341,2.671
			l-3.091-0.053L864.185,1091.368z"/>
		<path fill-rule="evenodd" clip-rule="evenodd" fill="#DD5927" d="M883.789,1088.129l-0.188,10.541l1.868,0.033l0.244-13.741
			l-1.425-0.024c-0.482,1.189-2.375,2.61-3.368,3.143l0.799,1.329C882.528,1089.07,882.956,1088.705,883.789,1088.129z"/>
		<path fill-rule="evenodd" clip-rule="evenodd" fill="#DD5927" d="M895.203,1095.944l-0.052,2.925l1.868,0.032l0.052-2.925
			l1.224,0.021l0.028-1.57l-1.225-0.021l0.165-9.245l-1.707-0.029l-6.005,9.146l-0.028,1.57L895.203,1095.944z M895.23,1094.374
			l-4.095-0.07l4.212-6.546L895.23,1094.374z"/>
		<path fill-rule="evenodd" clip-rule="evenodd" fill="#DD5927" d="M906.306,1092.993c-0.003,0.176-0.006,0.353-0.01,0.53
			c-0.062,1.217-0.538,4.331-2.485,4.297c-1.003-0.017-1.317-0.455-1.985-1.271l-1.279,0.783c0.952,1.784,2.395,1.985,3.317,2.001
			c2.81,0.049,4.294-3.245,4.368-7.347c0.115-6.518-2.888-7.001-4.012-7.02c-2.528-0.044-3.969,1.875-4.021,4.8
			c-0.05,2.808,1.446,4.502,3.554,4.539C904.213,1094.312,905.259,1094.232,906.306,1092.993z M904.102,1092.68
			c-0.843-0.014-2.019-0.525-1.971-3.195c0.021-1.158,0.357-3.155,2.084-3.125c1.544,0.026,1.978,1.605,1.95,3.195
			C906.124,1091.89,905.267,1092.7,904.102,1092.68z"/>
		<path fill-rule="evenodd" clip-rule="evenodd" fill="#DD5927" d="M913,1091.655c-1.538,0.622-2.3,1.747-2.334,3.632
			c-0.016,0.903,0.167,4.166,3.941,4.23c2.73,0.047,4.046-1.717,4.089-4.092c0.02-1.139-0.211-2.871-2.204-3.71
			c0.768-0.301,1.967-1.065,1.997-2.773c0.033-1.865-0.978-3.748-3.627-3.793c-2.63-0.045-3.707,1.802-3.74,3.667
			C911.101,1090.051,911.805,1091.143,913,1091.655z M914.729,1092.587c0.723,0.012,2.083,0.37,2.039,2.823
			c-0.044,2.494-1.574,2.703-2.136,2.693c-0.843-0.015-2.078-0.566-2.039-2.765C912.637,1092.885,914.088,1092.576,914.729,1092.587
			z M914.835,1086.639c0.481,0.009,1.725,0.148,1.689,2.15c-0.021,1.158-0.442,2.29-1.768,2.268
			c-1.284-0.022-1.705-1.168-1.685-2.327C913.091,1087.67,913.571,1086.618,914.835,1086.639z"/>
	</g>
	<path fill="none" stroke="#DD5927" stroke-width="3.5717" stroke-miterlimit="3.8637" d="M1111.199,1051.374
		c-8.82,19.61-11.396,26.525-20.757,34.44c-17.376,14.693-82.315,25.753-105.833,26.903c-9.645,0.472-38.853,3.379-73.446,2.7"/>
	<polygon fill="#DD5927" stroke="#DD5927" stroke-width="3.5717" stroke-miterlimit="3.8637" points="908.877,1115.985 
		910.032,1114.032 904.554,1115.984 910.169,1118.157 	"/>
	<path fill="none" stroke="#DD5927" stroke-width="3.5717" stroke-miterlimit="3.8637" d="M1334.201,793.61
		c-15.943,15.591-99.709,106.013-111.401,116.927c-7.843,7.32-32.079,46.358-62.242,68.998
		c-17.474,13.114-35.011,42.217-35.011,42.217c-3.618,6.85-9.105,15.78-11.804,21.779"/>
	<polygon fill="#DD5927" stroke="#DD5927" stroke-width="3.5717" stroke-miterlimit="3.8637" points="1114.596,1041.636 
		1113.195,1039.843 1112.934,1045.539 1117.143,1041.304 	"/>
	<path fill="none" stroke="#DD5927" stroke-width="5.1024" stroke-miterlimit="3.8637" d="M986.906,837.573
		c0,0-102.311,3.25-186.757,6.431c-68.351-5.138-120.969,34.364-137.719,52.671c-4.202,4.593-17.103,9.71-27.364,9.71
		s-27.834-12.845-26.124-19.781c1.709-6.936,2.108-12.884,8.551-8.323c6.07,4.297,10.208,8.63,15.339,14.179
		s33.262,28.678,43.524,31.453c10.262,2.774,47.807,3.46,64.799,1.887c23.072-2.136,90.895-16.884,130.886-27.239"/>
	<polygon fill="#DD5927" stroke="#DD5927" stroke-width="5.1024" stroke-miterlimit="3.8637" points="869.594,898.175 
		869.011,901.065 874.935,896.393 867.062,896.025 	"/>
	<path fill="none" stroke="#DD5927" stroke-width="5.1024" stroke-miterlimit="3.8637" d="M1386.249,761.873
		c-7.829,9.977-77.131,42.615-94.73,51.342c-57.134,28.332-112.253,21.982-171.126,21.816c-46.43-0.131-88.407,0.268-119.192,0.268"
		/>
	<polygon fill="#DD5927" stroke="#DD5927" stroke-width="5.1024" stroke-miterlimit="3.8637" points="1005.907,834.539 
		1007.361,831.959 1000.264,834.648 1007.65,837.34 	"/>
	<path fill="none" stroke="#DD5927" stroke-width="3.5717" stroke-miterlimit="3.8637" d="M668.087,994.998
		c0,0-21.493-0.62-31.155-12.48c-3.805-4.671-0.405-24.353-22.725-27.991c0,0-38.548-19.436-48.261-20.351
		c-4.199-0.396-8.013-0.609-11.25-0.609c-15.078,0-31.394,24.355-28.822,38.336"/>
	<polygon fill="#DD5927" stroke="#DD5927" stroke-width="3.5717" stroke-miterlimit="3.8637" points="525.5,969.866 
		523.313,969.144 526.349,974.012 527.423,968.2 	"/>
	<g>
		<path fill-rule="evenodd" clip-rule="evenodd" fill="#DD5927" d="M813.365,979.634c0.116,0.03,0.214,0.056,0.33,0.086
			c1.28,0.336,2.108,0.573,2.972,4.479c0.694,3.23,1.265,3.726,2.545,4.062c0.232,0.061,0.457,0.079,0.7,0.102l0.396-1.441
			c-0.116-0.031-0.214-0.056-0.33-0.086c-0.863-0.267-0.679-0.482-1.714-4.291c-0.375-1.359-0.747-2.432-2.134-3.06l0.015-0.057
			c3.589-0.279,3.931-4.255,5.928-3.731c0.097,0.025,0.175,0.045,0.267,0.09l0.395-1.441c-0.111-0.049-0.203-0.094-0.32-0.125
			c-1.628-0.426-2.64,0.304-4.058,1.762c-2.022,2.072-2.532,2.568-4.25,2.159c-0.097-0.026-0.213-0.056-0.31-0.082l1.475-5.386
			l-1.861-0.488l-3.638,13.276l1.862,0.488L813.365,979.634z"/>
		<path fill-rule="evenodd" clip-rule="evenodd" fill="#DD5927" d="M822.947,981.751c-0.133,0.735-0.481,3.007,0.343,4.884
			c1.044,2.353,3.127,3.011,4.65,3.274c1.502,0.259,3.71,0.34,5.494-1.525c0.576-0.598,1.579-1.861,2.05-4.471
			c0.47-2.61-0.03-4.132-0.363-4.887c-1.023-2.35-3.126-3.011-4.629-3.271c-1.522-0.262-3.71-0.34-5.514,1.521
			C823.547,978.764,823.08,981.016,822.947,981.751z M824.994,982.044c0.179-0.986,1.095-5.393,5.188-4.688
			c3.658,0.631,3.61,4.291,3.265,6.206c-0.346,1.914-1.58,5.37-5.238,4.739C825.479,987.83,824.373,985.486,824.994,982.044z"/>
		<path fill-rule="evenodd" clip-rule="evenodd" fill="#DD5927" d="M845.985,979.943l-1.509,12.024l1.913,0.23l1.713-13.642
			l-7.333-0.881l-0.272,2.164c-0.169,1.344-0.666,5.143-1.51,7.514c-0.833,2.294-2.303,2.395-2.764,2.359
			c-0.079-0.01-0.139-0.017-0.219-0.026l-0.186,1.481c0.231,0.087,0.448,0.133,0.708,0.164c2.192,0.263,3.697-1.416,4.511-4.187
			c0.81-2.751,0.954-4.376,1.442-7.621L845.985,979.943z"/>
		<path fill-rule="evenodd" clip-rule="evenodd" fill="#DD5927" d="M855.376,987.343l-3.561-8.47l-2.123-0.146l4.508,10.701
			c-0.778,1.305-1.559,2.097-3.136,1.911l-0.106,1.488c0.275,0.098,0.515,0.114,0.835,0.136c1.742,0.119,3.053-0.755,4.406-3.36
			l5.229-10.074l-2.003-0.137L855.376,987.343z"/>
		<polygon fill-rule="evenodd" clip-rule="evenodd" fill="#DD5927" points="868.453,990.694 869.738,990.694 873.271,981.977 
			873.271,993.286 875.199,993.286 875.199,979.542 872.549,979.542 869.115,988.043 865.643,979.542 862.972,979.542 
			862.972,993.286 864.899,993.286 864.899,981.977 		"/>
		<path fill-rule="evenodd" clip-rule="evenodd" fill="#DD5927" d="M880.02,981.075l6.777-0.348l-0.087-1.627l-8.701,0.445
			l0.735,13.726l5.534-0.283c3.248-0.167,4.731-2.13,4.592-4.719c-0.206-3.843-3.409-3.954-4.993-3.873l-3.669,0.188L880.02,981.075
			z M880.295,986.212l3.168-0.163c2.787-0.143,3.281,1.188,3.348,2.444c0.086,1.608-0.516,2.759-3.142,2.894l-3.089,0.159
			L880.295,986.212z"/>
		<path fill-rule="evenodd" clip-rule="evenodd" fill="#DD5927" d="M899.395,981.281l1.127,10.486l1.858-0.191l-1.47-13.669
			l-1.418,0.146c-0.331,1.238-2.032,2.874-2.952,3.521l0.959,1.224C898.26,982.365,898.639,981.951,899.395,981.281z"/>
		<path fill-rule="evenodd" clip-rule="evenodd" fill="#DD5927" d="M911.768,987.413l0.417,2.897l1.85-0.254l-0.417-2.897
			l1.213-0.167l-0.224-1.555l-1.213,0.166l-1.316-9.157l-1.69,0.232l-4.469,9.953l0.223,1.556L911.768,987.413z M911.545,985.857
			l-4.057,0.558l3.114-7.109L911.545,985.857z"/>
		<path fill-rule="evenodd" clip-rule="evenodd" fill="#DD5927" d="M922.188,982.518c0.032,0.173,0.063,0.348,0.094,0.521
			c0.178,1.206,0.316,4.352-1.602,4.683c-0.989,0.17-1.382-0.2-2.197-0.877l-1.104,1.007c1.283,1.573,2.738,1.502,3.647,1.345
			c2.77-0.478,3.583-3.987,2.854-8.028c-1.157-6.419-4.2-6.334-5.307-6.143c-2.491,0.43-3.53,2.583-3.011,5.464
			c0.499,2.765,2.298,4.149,4.374,3.792C920.393,984.203,921.404,983.928,922.188,982.518z M919.965,982.622
			c-0.831,0.143-2.084-0.139-2.559-2.769c-0.206-1.141-0.265-3.164,1.436-3.458c1.522-0.262,2.256,1.206,2.539,2.772
			C921.796,981.468,921.112,982.424,919.965,982.622z"/>
		<path fill-rule="evenodd" clip-rule="evenodd" fill="#DD5927" d="M926.766,976.85c0.413-1.591,1.509-2.12,2.256-2.275
			c1.57-0.327,2.144,0.899,2.266,1.456c0.208,0.96,0.078,2.433-2.567,2.922l0.317,1.46c0.098-0.021,0.216-0.045,0.314-0.065
			c1.006-0.189,3.035-0.49,3.606,2.141c0.313,1.44-0.081,2.928-1.692,3.263c-1.276,0.266-2.067-0.353-2.83-1.218l-1.277,0.928
			c1.628,2.11,3.391,1.904,4.373,1.7c2.69-0.559,3.792-2.855,3.312-5.064c-0.442-2.036-1.888-3.02-3.47-2.932
			c0.735-0.394,2.167-1.454,1.712-3.548c-0.338-1.555-1.665-3.126-4.218-2.595c-2.042,0.424-3.057,1.8-3.491,3.395L926.766,976.85z"
			/>
	</g>
	<g>
		<path fill-rule="evenodd" clip-rule="evenodd" fill="#DD5927" d="M805.553,1056.838c0.12,0.002,0.221,0.004,0.341,0.006
			c1.324,0.022,2.187,0.057,3.991,3.642c1.473,2.971,2.15,3.316,3.475,3.339c0.241,0.004,0.462-0.031,0.704-0.066l0.027-1.492
			c-0.121-0.002-0.221-0.003-0.342-0.006c-0.903-0.055-0.777-0.308-2.725-3.758c-0.7-1.229-1.326-2.183-2.827-2.463l0.001-0.059
			c3.414-1.12,2.761-5.059,4.829-5.023c0.101,0.001,0.181,0.003,0.281,0.024l0.027-1.492c-0.12-0.021-0.221-0.042-0.341-0.045
			c-1.686-0.029-2.486,0.92-3.501,2.67c-1.45,2.489-1.823,3.091-3.589,3.1c-0.101-0.001-0.221-0.003-0.322-0.005l0.1-5.575
			l-1.927-0.033l-0.245,13.742l1.927,0.033L805.553,1056.838z"/>
		<path fill-rule="evenodd" clip-rule="evenodd" fill="#DD5927" d="M815.451,1056.659c0,0.746,0.06,3.043,1.204,4.751
			c1.446,2.141,3.614,2.435,5.161,2.435c1.525,0,3.713-0.294,5.14-2.435c0.461-0.688,1.225-2.101,1.225-4.751
			c0-2.65-0.764-4.064-1.225-4.751c-1.426-2.14-3.614-2.435-5.14-2.435c-1.547,0-3.715,0.295-5.161,2.435
			C815.511,1053.616,815.451,1055.913,815.451,1056.659z M817.519,1056.6c0-1.001,0.121-5.497,4.276-5.497
			c3.715,0,4.317,3.612,4.317,5.556s-0.602,5.556-4.317,5.556C819.025,1062.215,817.519,1060.095,817.519,1056.6z"/>
		<path fill-rule="evenodd" clip-rule="evenodd" fill="#DD5927" d="M838.147,1051.396v12.115h1.928v-13.745h-7.389v2.179
			c0,1.355-0.02,5.184-0.563,7.638c-0.542,2.376-1.987,2.65-2.449,2.67c-0.08,0-0.14,0-0.221,0v1.492
			c0.241,0.059,0.463,0.078,0.723,0.078c2.208,0,3.493-1.845,3.956-4.692c0.461-2.827,0.4-4.457,0.481-7.736H838.147z"/>
		<path fill-rule="evenodd" clip-rule="evenodd" fill="#DD5927" d="M848.443,1057.759l-4.302-8.135l-2.128,0.037l5.444,10.275
			c-0.658,1.366-1.366,2.223-2.953,2.171l0.027,1.492c0.283,0.074,0.523,0.07,0.844,0.064c1.747-0.03,2.975-1.013,4.09-3.723
			l4.311-10.481l-2.007,0.035L848.443,1057.759z"/>
		<polygon fill-rule="evenodd" clip-rule="evenodd" fill="#DD5927" points="861.585,1060.32 862.869,1060.277 866.09,1051.444 
			866.494,1062.747 868.42,1062.681 867.929,1048.945 865.281,1049.035 862.153,1057.649 858.378,1049.271 855.709,1049.362 
			856.2,1063.098 858.125,1063.032 857.723,1051.729 		"/>
		<path fill-rule="evenodd" clip-rule="evenodd" fill="#DD5927" d="M873.01,1050.321l6.777-0.347l-0.087-1.627l-8.702,0.446
			l0.734,13.726l5.535-0.284c3.248-0.166,4.731-2.13,4.592-4.718c-0.206-3.843-3.409-3.954-4.992-3.873l-3.668,0.188
			L873.01,1050.321z M873.286,1055.458l3.167-0.163c2.787-0.143,3.28,1.189,3.348,2.443c0.086,1.608-0.516,2.76-3.142,2.894
			l-3.088,0.158L873.286,1055.458z"/>
		<path fill-rule="evenodd" clip-rule="evenodd" fill="#DD5927" d="M892.483,1050.838l0.752,10.518l1.862-0.127l-0.98-13.711
			l-1.422,0.098c-0.375,1.226-2.135,2.803-3.077,3.418l0.915,1.256C891.309,1051.882,891.704,1051.481,892.483,1050.838z"/>
		<path fill-rule="evenodd" clip-rule="evenodd" fill="#DD5927" d="M899.416,1047.175l0.023,7.015l1.46-0.125
			c0.242-0.454,0.743-0.931,1.743-1.016c1.68-0.144,2.292,1.518,2.426,3.005c0.156,1.741-0.413,3.268-1.993,3.402
			c-1.24,0.106-1.838-0.276-2.685-1.406l-1.239,0.796c1.162,2.167,3.02,2.205,3.919,2.128c2.581-0.221,4.176-2.21,3.929-4.968
			c-0.255-2.856-1.887-4.648-4.027-4.465c-1.18,0.101-1.678,0.616-1.824,0.787l0.029-3.728l4.319-0.369l-0.139-1.565
			L899.416,1047.175z"/>
		<path fill-rule="evenodd" clip-rule="evenodd" fill="#DD5927" d="M909.014,1053.321c0.561,6.259,3.361,6.926,4.901,6.794
			c1.541-0.131,4.18-1.264,3.62-7.523c-0.56-6.259-3.361-6.926-4.9-6.794C911.094,1045.929,908.454,1047.062,909.014,1053.321z
			 M910.929,1053.099c-0.434-4.851,0.826-5.629,1.846-5.717c0.981-0.083,2.4,0.465,2.834,5.316c0.435,4.851-0.867,5.632-1.847,5.716
			C912.743,1058.501,911.363,1057.949,910.929,1053.099z"/>
		<path fill-rule="evenodd" clip-rule="evenodd" fill="#DD5927" d="M922.459,1057.396c2.467-3.531,5.276-5.952,4.938-9.095
			c-0.23-2.147-1.64-3.8-4.435-3.513c-2.257,0.232-3.415,1.852-3.729,3.246l1.554,0.551c0.606-1.681,1.388-2.117,2.246-2.204
			c1.397-0.145,2.297,0.711,2.442,2.058c0.259,2.422-1.857,4.515-5.293,9.171l0.17,1.582l8.147-0.837l-0.168-1.562L922.459,1057.396
			z"/>
	</g>
</g>
</svg>
